module github.com/frog-in-fog/youtube_thumbnail_grpc

go 1.22.1

require (
	github.com/frog-in-fog/youtube_thumbnail_protos v0.0.1
	github.com/golang-migrate/migrate/v4 v4.17.1
	github.com/ilyakaznacheev/cleanenv v1.5.0
	github.com/mattn/go-sqlite3 v1.14.22
	github.com/stretchr/testify v1.8.3
	google.golang.org/grpc v1.64.0
)

require (
	github.com/BurntSushi/toml v1.4.0 // indirect
	github.com/davecgh/go-spew v1.1.1 // indirect
	github.com/hashicorp/errwrap v1.1.0 // indirect
	github.com/hashicorp/go-multierror v1.1.1 // indirect
	github.com/joho/godotenv v1.5.1 // indirect
	github.com/pmezard/go-difflib v1.0.0 // indirect
	go.uber.org/atomic v1.7.0 // indirect
	golang.org/x/net v0.22.0 // indirect
	golang.org/x/sys v0.18.0 // indirect
	golang.org/x/text v0.14.0 // indirect
	google.golang.org/genproto/googleapis/rpc v0.0.0-20240318140521-94a12d6c2237 // indirect
	google.golang.org/protobuf v1.34.2 // indirect
	gopkg.in/yaml.v3 v3.0.1 // indirect
	olympos.io/encoding/edn v0.0.0-20201019073823-d3554ca0b0a3 // indirect
)
